<?xml version="1.0" encoding="UTF-8"?>
<session version="1.0">
<refactoring comment="Delete resource &apos;MyDemo&apos;" deleteContents="true" description="Delete resource &apos;MyDemo&apos;" element1="/MyDemo" flags="7" id="org.eclipse.ltk.core.refactoring.delete.resources" resources="1" stamp="1564331503322"/>
</session>